Name                      Prix
------------------------ ----- 
Victoria Jasparro         1000
Amy Huerta                 998
Britta Baxter              996
Kelly Soldati              984
Helena Bozarth             988
Lynne  Clemo               986
Elizabeth Quinn            980
Andrea Gamache             760
Bryanna Sapp               974
Elizabeth  Dieter          964
Jaclyn Dolan               954
Brianne Slattery           952
Wildaly Rodriguez          930
Jestine Dooney             928
Pia Severa                 912
Allyson Shull              882
Elizabeth Rahauser         874
Sarah Rollins              838
Morinda Moore              834
Helen Anderson             810
Emily Ahlsted              808
Shahanna Rollins           800
Maura Rawlette             798
Lisa Barrett               774
Carlie Eckhart             772
Ashlee Brown               744
Tresa Jones                994
Stephanie Hayden           992
Katie Ayala                990
Erika Jacobs               982
Julia Wolfe                970
Janel Michaelis            968
Sarah Morgan               966
Tara Peters                958
Angela Mejeur              956
Laurie Dew                 948
Tiffany Donadi             944
Laurel  Jordan             940
Donna German               938
Stacy Evans                936
Jody Russell               934
Alison Donley              926
Carrie Mackie              924
Launa Zaffram              922
Renee Almond               916
Tabitha Hedrick            906
Michelle Nichols           904
Jenny Books                902
Michele Forrester          900
Kristin Davis              898
Melissa Terry              894
Mary Tokar                 884
Stacey Berube              872
Ann Smith                  870
Jeannie Dupee              866
Laura Sicks                864
Karen Shuttleworth         862
Janel Bertram              860
Tara Taffera               858
Season Plato               846
Suzie Medina               844
Lindsay Gray               842
Tinsley Fitton             840
Tanya Meline               832
Caren Walker               828
Marla Aste                 826
Stephanie forrester        822
Annie Mauro                818
Laurie Cooke               816
Jessica Remley             814
Cynthia Vissers            778
Tracey Hartley             776
Sonya Bartsch              770
Shannon Wilson             766
Ellen Jones                978
Andrea Carroll             976
Ruth Olson                 972
Suzanne Bain               962
Kimberly Willits           960
Lacey Fulton               950
Cara Feys                  946
Lisa Tibert                932
Teresa Berra               918
Karen Hyland               910
Laura Lewis                908
Jane Yaun                  896
Patricia Kramer            892
Angie Tilley               890
Julie Weber                886
katherine baker            880
Trista Chapman             878
Pamela Hall                876
Joell Palmer               856
Judy Hellmann              854
Debbie Maxam               852
Mary Wheatley              850
Joan Jones                 836
Elizabeth Sale             830
Paulla Loder               820
Cathy Clements             812
Cathy Stuart               806
Cindy Davis                804
Christy Bolich             802
Carolyn Klopp              796
Corrine Berthault          794
Candace McDaniel           788
Lori Jeppe                 786
Jennifer Homendy           784
LJ Gioeni                  764
Donna Jean Gamache         758
Donna Wilson               756
Robin Lynn Barnes          752
Wendy Bliss                748
Darlene Pickard            742
Leslie Rigby Kash          942
Marylee Brown              920
Beth Venable               914
Victoria Clark             888
Candice Bautista           868
Nancy Cooper               848
Elizabeth O'Toole          824
Peggy Bell                 782
linda  gioeni              762
Debbie Pereira             754
Gloria Shelton             746
Jannette Martin            792
Brenda Purcell             790
Annie Fillare              780
Alice Austiff              768
Marcia Hall                750
Bert Jacoby               1000
Olde Fritz                 998
Christopher Keegan         996
Nicholas Erridge           964
Craig Chasse               994
Ted Poulos                 992
Terry McLaughlin           990
Mason  McMahon             970
Sam Glover                 944
Chris Badolato             984
Adam Roggia                982
Chris  Halbert             972
Craig Clark                962
William Garza              952
Wesley Rogers              930
Nick  Dupont               912
Phil Delwiche              888
Jedidiah Althouse          842
Troy Foster                818
Zach Rowland               792
Andrew Bliss               740
Kirby Nunez                734
Zach Whalen                986
Danny Huerta               980
E.J. O'Malley              978
Patrick Early              976
Andy Gotchel               950
William Calvert            948
Sky Peters                 932
Kyle Pighini               926
Paul Gomez                 890
Michael Kainu              884
Gregg Schwiner             882
Jeff Patterson             880
Craig Schnappinger         878
Mark Wiseman               876
Michael Witt               874
Kevin Bouffard             864
Chris Burns                862
Timothy Brown              852
Matt Unruh                 846
Aaron Hines                834
Erik Meline                824
Aaron  Jacobs              822
Ralph Warren               814
Mark Shepherd              812
Christopher Johann         784
Jeremy Bolich              772
Julio Vakgas               768
Mike Nichols               762
Mac Smith                  760
alison schaefer            750
Adam Jeppe                 746
Neil Richard               744
Timothy Hough              728
John Selfe                 720
Christopher Koehler        988
Glenn Oxford               974
Brett Chappell             960
Donny Self                 936
Rex L. Edwards             928
Steven Ablondi             924
kirk chestnut              922
Mark Reeves                908
Jason Cohen                906
Matt Bell                  902
Altyn Clark                900
Jon  Dachos                898
Mark Glass                 894
Christopher Ernandes       892
Mark Earnesty              872
Steve Rowles               870
Ben Holmes                 858
Michael Kamin              856
Mike Knutson               844
Jay Gordon                 840
Jeffrey Higgins            836
Leonard Dorrian            832
Steve Berra                828
Roswell Hathaway           820
George Roth                816
Hart Rutherford            808
Michael Berube             806
Guy Gormley                804
Carlo Montemayor           802
Dimas Santos               800
John Bush                  798
Jesse Soto                 790
Darius Wilson              780
Donnie Hart                778
Joe Bellinger              774
Jeff Van Horn              770
Steven Hall                754
chris kennedy              748
Duane Williamson           736
Thomas Heffern             718
Donny Wardlaw              714
David Lovegrove            968
Bruce Kesselring           966
Gary Grimsley              958
David Pinnick              956
William Hamilton           954
Henry Clemo                946
Steve Sakry                942
Mike Brooks                940
Bret Schmidt               920
Rolando Pancotti           918
Dan Ward                   916
Lars Dahl                  914
Dennis Funderburke         910
Paul Weber                 896
Larry Anderson             868
Brian Gudmundsson          866
Mike Rogers                860
Michael Ferren             854
Lee Holbrook               850
William Glover             848
Danny O'Toole              838
Vic Culp                   826
Mark  Rutherford           810
Bruce Berg                 796
Daniel Hansen              794
John L Timmerman           788
Dan Maxam                  776
Brian Dolan                758
Gabriel Leyva              756
David Rasmussen            752
Ralph Arquiette            732
Bob Brammer                730
Foster Bliss               726
Roger Austiff              724
John Cave                  716
tim  zafrano               712
Bobby Stevens              938
Allen Vaughan              934
Vincent Murphy             904
steve schaeffer            830
Larry N Cooper             786
Barry Fitz-James           782
Dave Thomen                766
Al Littek                  764
Durrell Boyd               742
Sammy Merrill              886
Robert Gurtler             738
Charles C Hall             722
