Name                      Prix
------------------------ -----
Molly C Roohi             1000
Victoria Jasparro          998
Sara Lasker                996
Christina Hogg             960
Olivia Leaman              934
Sophia Fasano              914
Caitlyn Nocera             858
Nikyla Wardrop             854
Madison Brown              826
Gina Morgan                790
Elizabeth Goodwin          784
Morgan Blackwelder         766
Anna Jockin                758
Kayla Davies               752
Jordan Buck                742
Heather Groel              708
Jillian Lyman              664
Madeline Schoen            652
Abigail Weiderhold         612
Eden Ambrose               590
Francesca Veale            588
Anna-Kate Domingue         576
kelsey brinkman            560
Samantha Anderson          538
Gabrielle Spears           520
Rebecca Riley              468
Jeri Hetrick               822
Micah Dupie                802
Madison Clodius            776
Andrea Gamache             718
Jessica Macomber           660
Allison Weiderhold         610
Taryn Snyder               524
Michelle Bezeredi          498
Tori Wilder                964
SARAH CODY INMAN           950
Samantha Graves            938
Natalie Grossman           890
Mia Santina                880
Emily Eakin                878
Caitlyn Cortese            848
Amanda Brandt              800
Kristen Bradford           794
Shanna Boyce               748
Jessica brinson            738
Amy Macomber               704
Alexandra Council-Troche   662
Lynette Leighton           658
Rachel Zarzour             650
Sarah Palenik              648
Megan Mullins              632
Jaeger Spratt              568
Nicole Rogers              556
Deidra Shafer              502
Emily Deane                490
Casey Paul                 974
Megan Hart                 952
Faith Calleson             936
Brianne Slattery           924
Nicole Ashby               910
Jessica Healy              896
Charde Hall                886
Katie  Jackson             872
Sarah Montgomery           840
Courtney C. Lipski         820
Virginia Brauer            812
Elizabeth Austin           798
Melissa Schmidt            792
Katy Owens                 744
Rachel Wyant               732
Betsy Kusniez              714
Leslie Thode               692
Rebecca Funkhouser         688
Alix Mayer                 680
Samantha Blake             618
Katrina Clement            616
Casey Stewart              614
Rachel McDonald            602
Christie Hoerneman         586
Teagan Snyder              526
Jessica Pierce             518
Ashley Hobgood             512
Tara McCoy                 476
Kelly Stephens             458
Britta Baxter              992
Sara Perez                 990
Katie Ayala                980
Kristen Loescher           968
Sarah Morgan               942
Christine Demetz           940
Tracy Dzibela              916
Ashley McLeod              912
Mary Tokar                 898
Jen Harbour                888
Michele Forrester          852
Sara Chiappini             838
Heather Hahn               824
Allison St. Cyr            808
Maggie Kim                 782
Lakisha hickman            712
Rebecca Guernsey           710
Lynn Davies                674
Janette Tolosa             562
Lindy Lewis                532
Alyson Kitchen             528
Celeste Morris             516
Tara Canada                514
Heather Bowman             492
Amanda Henson              474
Amy Huerta                 994
Katarina Whelan            986
Stephanie Hayden           982
Pamela Brown               978
Tresa  Jones               976
Keli McCan                 928
Laurie Dew                 920
Alice Pallotti             918
Donna German               902
jaime biagi statler        894
Renee Almond               892
Laurel  Jordan             884
Jennifer Rasnake           876
Dorian Leaman              868
Ginny Hauger               864
Tara Taffera               860
Danielle Wardrop           844
Joanna Beger-Mason         796
Chris Banks                774
Michelle Henry             772
Alyson Wieland             762
Elizabeth McMaster         756
Robin Sandoval             750
Desa Olson                 728
Desiree Wilson             720
Melissa Reinhardt          682
Shannon Wilson             672
Sandra  Ambrose            670
Carrie  Wilk               666
Jackie Pflueger            654
tracy anderson             640
Jennifer Davies            628
Kelly Van Arsdale          606
Sabrina Reese              600
Lynn Pompilio              582
Andrea Clayton             566
Betty Kalb                 550
Heather Marie Rigdon       546
Amy Kish                   534
Sue Furtado                508
Bonnie Stransky            506
Kristine Chase             494
Shannon Harris             488
Kathleen Riley             466
Michelle Dolby             984
Susan Sinton               948
Kimberly Willits           944
Pauline Owen               930
Loralee Chevone-Garrett    882
Alison Sullivan            870
Teresa Berra               846
Carrie Szlyk               836
Monica Torres              832
Jackie Colon               830
Patricia Kramer            818
Lisa Renard-Spicer         816
Ashley Nocera              814
Cindy Davis                788
Anne Henley                780
Jennifer Bondgren          760
Christine Stewart          746
Jennifer Homendy           740
Anita K Gossett            736
Diane Schoen               726
michele  andersen          722
Angie Young                702
Stacy Mulgrew              698
Donna Jean Gamache         696
Julie Fasano               676
Dawn Veale                 668
Donna Wilson               644
Mary Wilfong               642
Sheryl Smalley             636
Caryn Pitts                624
Antonia Bay                608
Lisa Skeer                 598
Stephenie Newton           542
Patti Damor                536
Susan Weiderhold           510
tammy brinkman             504
DeeDee Dean                496
Anais Garrow               486
Colleen Hash               480
Ruth Olson                 988
Carol Krill                972
Andrea Carroll             970
Helena Bozarth             966
Ellen Jones                962
Suzanne Bain               958
Carol David                954
Lacey Fulton               946
Debra Carral               906
Jami  Mckenna              900
Debra Vaccaro              866
Betsy Lewis                862
Trista Chapman             842
Della Hall                 834
Lidia Baca                 806
Lorna Blackler             804
Julie Weber                786
Linda O'Malley             768
Pat Wheelbarger            730
lisa lyman                 700
Ursula Bivens              694
Arleen Taninecz            690
Helen Buck                 684
Lisa Scarcia               678
Cecilia Altizer            656
Kathy Capriani             634
Terry Dodson               594
Richelle Edmonds           580
Nina Willging              578
Janet Bradshaw             574
Deb Hendricks              572
Victoria Cartoski          570
Laney Walton               554
Kathi Bezeredi             500
Anita Ware                 470
Denise Rodgers             456
Elizabeth Quinn            956
Catherine Norvell          926
Kathleen Dooley            904
Pamela Nimeth              874
Beth Venable               856
Nancy Cooper               828
nancy miller               810
Lorrie Hummer              770
Linda Kagarise             764
Tamara Krumm               754
shirley poss               716
nadine aguilera            706
Tammy Schoenhardt          626
Carol Widman               604
Patricia Funderburke       584
Theresa Contreras          564
Mary Rogers                558
Diane  Hall                552
Christie Scicli            548
Debbie Pereira             544
Gretchen Rosario           484
Charlene Anderson          482
Dee Larkin                 478
Brenda Walker              472
Becky Cappetta             464
Amy Fitzpatrick            460
Leslie Rigby Kash          922
Nancy Ball                 908
Cheryle Phillips           630
Victoria T. White          540
Sue Harrison               522
Kathleen Fike              932
Colleen Himelright         850
Brenda Purcell             778
Nancy Morrissette          734
Jannette Martin            724
Alice Austiff              686
Trudy Monroe               646
Alice Stumpf               622
Bonnie Thomen              620
Nancy Cahill               596
Marcia Hall                592
Anita Perrow               530
Arlowene Garland           638
Barbara Anderson           462
Bert Jacoby               1000
Brandon Dick               998
Tyler Oliver               996
Kellen Reeves              948
Mitchell Dolby             910
Robert Domingue            902
Billy Stevenson            892
Hunter  Wilfong            888
Dylan Good                 884
Paul  Pierce               878
Collin henley              852
Russ  Pierce               840
Andrew Willging            810
Blake Floyd                776
Nick  Pierce               766
Jack Greven                754
Kevin Ooten                734
Matthew Appleton           712
Matthew Prodgalidad        686
Jamin Elliott              650
Jospeh Brown               648
Thomas Wilfong             644
Nicholas Dean              636
Charlie Brinkman           634
Kyle Pfohl                 986
Hunter Renard              968
Patrick O'Connor III       964
Shawn O'Malley             936
chris Willging             906
William Strand             858
Skyler Mills               832
Zachery Dean               800
Jakob Lyman                730
T.C. Williams              680
Jonathan  Buck             678
Jack Fitzpatrick           626
Aubrey Heflin III          990
Brandon Hendrickson        938
Jamie Ellis                932
Aubrey Elliott             870
Branden Inman              868
Garrett Good               828
Branden Click              706
Cory White                 642
Matthew Resnick            976
Bryan Morgan               972
Nick Dunford               966
Troy Foster                844
Larry Fightmaster          836
Aaron Spicer               752
Paul Hemming               750
Brian Lamb                 724
Jason Supernaugh           658
Zach Whalen                994
Justin C. Neibauer         992
Ken Loescher               970
Rodger Palko               962
James Hayner               960
Nick Pierce                946
Kevin Bouffard             894
Timothy Smith              882
Robert  Light              876
Nickolas Chiappini         768
Kyle Hahn                  760
Greg Greven                756
Edwin Wyant                726
Joel  Parchment            702
Ronald Lynch Jr            698
Ryan Elliott               652
Chris Leggett              982
Nathan Howes               974
Jeffrey Modliszewski       958
Bryan Schuster             940
Kyle Pighini               918
Luigi Castiglia            824
Allen Hicks                820
Ralph Warren               818
Ryan Leaman                788
Jason Scarbrough           786
MARK SCHAUB                784
Christian Castillo         716
Bob Appleton               710
Edward  Brinkman           704
Mike Van Arsdale           668
Craig Chasse               988
Andy Gotchel               956
Ciro Marchetti             930
Andrew Dolby               908
Jason Cohen                898
Mike Knutson               880
Raymond Carroll            872
George Roth                860
Charles Walton             842
Timothy Daniels            838
Brian Kiser                830
Eric Wyatt                 826
John Bush                  816
James Fasano               806
Chuck  Downing             774
Gregory Roberts            744
Chris Centore              714
Thomas Heffern             696
Tony Garrow                688
Bill Anderson              682
Robert Newton              646
David Anderson             638
Mike Cutright              980
Charlie Penn               954
BILLY WAYNE RASNAKE JR.    934
Mark Reeves                928
Donny Self                 920
Jon  Dachos                912
Steve Berra                866
Frank Guzman               854
Paul St. Laurent III       848
Ralph Lewis                812
Patrick Willging           808
erik knutila               798
Mark Nocera                780
Dimas Santos               778
William Stevenson          764
Barry Burress              748
Carl Filter                742
James Lyman                690
Robert Schroeder           672
Kevin Pitts                670
Robert Weiderhold          664
Michael Blackwelder        662
Victor Shook               660
Hank Domingue              656
Brian Kish                 628
Ted Poulos                 984
Terry McLaughlin           978
William Hamilton           950
John Taninecz              942
Martin Kruger              922
Bob Brannon                900
Dennis Funderburke         896
Brian Gudmundsson          886
Andrew Hogarth             874
Mike Rogers                856
Bret Schmidt               834
Eric Lasker                822
Chris Pernia               804
David Rasmussen            796
Rick Hodson                782
W Howard Thomas            772
Joseph Frank               740
John Hetrick               738
Joseph Krumm               728
William Nebiker            708
Bruce White                640
Terry Fulton               632
David Pinnick              952
Jeff Peterson              944
Mike Brooks                916
Michael Ferren             904
Paul Weber                 890
Larry Anderson             862
Vic Culp                   846
Paul Harris                794
Daniel Hansen              790
Mike Daye                  770
Robin Good                 762
Ralph Arquiette            722
Roger Austiff              700
Bob Brammer                692
Renalie Prodgalidad        684
John Ball                  674
John Maloney               630
Allan McLearen             926
Bobby Stevens              924
Allen Vaughan              914
steve schaeffer            850
Patrick Del Vecchio        814
Larry N Cooper             802
William Chadim             792
Dave Thomen                758
Peyton Morgan III          746
Durrell Boyd               732
Wayne Baker                720
Bob Morrissette            694
Gary Anderson              676
Stephen Spratt             654
Terry Anderson             624
Sammy Merrill              864
Tom Kenney                 736
Robert Gurtler             718
Charles C Hall             666
